{
	"info": {
		"_postman_id": "da9d5136-d034-4d51-8f7d-d8a1a2f30208",
		"name": "blog_nestjs",
		"schema": "https://schema.getpostman.com/json/collection/v2.1.0/collection.json"
	},
	"item": [
		{
			"name": "Auth",
			"item": [
				{
					"name": "Create  User Data",
					"request": {
						"method": "POST",
						"header": [],
						"body": {
							"mode": "raw",
							"raw": "{\r\n    \"name\": \"User\",\r\n    \"username\": \"UserName\",\r\n    \"email\": \"user@mail.com\",\r\n    \"password\": \"Password123\",\r\n    \"role\": \"user\"\r\n}",
							"options": {
								"raw": {
									"language": "json"
								}
							}
						},
						"url": {
							"raw": "{{host}}/users",
							"host": [
								"{{host}}"
							],
							"path": [
								"users"
							]
						}
					},
					"response": []
				},
				{
					"name": "Get User List",
					"request": {
						"auth": {
							"type": "bearer",
							"bearer": [
								{
									"key": "token",
									"value": "{{token_blog}}",
									"type": "string"
								}
							]
						},
						"method": "GET",
						"header": [],
						"url": {
							"raw": "{{host}}/users",
							"host": [
								"{{host}}"
							],
							"path": [
								"users"
							]
						}
					},
					"response": []
				},
				{
					"name": "Update User",
					"request": {
						"method": "PUT",
						"header": [],
						"body": {
							"mode": "raw",
							"raw": "{\r\n    \"name\": \"Admin\",\r\n    \"username\": \"AdminName\",\r\n    \"email\": \"admin@mail.com\"\r\n}",
							"options": {
								"raw": {
									"language": "json"
								}
							}
						},
						"url": {
							"raw": "{{host}}/users/:id",
							"host": [
								"{{host}}"
							],
							"path": [
								"users",
								":id"
							],
							"variable": [
								{
									"key": "id",
									"value": "8"
								}
							]
						}
					},
					"response": []
				},
				{
					"name": "Delete User",
					"request": {
						"method": "DELETE",
						"header": [],
						"url": {
							"raw": "{{host}}/users/:id",
							"host": [
								"{{host}}"
							],
							"path": [
								"users",
								":id"
							],
							"variable": [
								{
									"key": "id",
									"value": "7"
								}
							]
						}
					},
					"response": []
				},
				{
					"name": "Get Single User By Id",
					"request": {
						"method": "GET",
						"header": [],
						"url": {
							"raw": "{{host}}/users/:id",
							"host": [
								"{{host}}"
							],
							"path": [
								"users",
								":id"
							],
							"variable": [
								{
									"key": "id",
									"value": "4"
								}
							]
						}
					},
					"response": []
				},
				{
					"name": "User Login",
					"event": [
						{
							"listen": "test",
							"script": {
								"exec": [
									"const session_token = pm.response.json().access_token;\r",
									"\r",
									"if(session_token) {\r",
									"    console.log('LOGIN IS SUCCESS')\r",
									"}\r",
									"\r",
									"pm.environment.set(\"token_blog\", session_token);\r",
									""
								],
								"type": "text/javascript"
							}
						}
					],
					"request": {
						"method": "POST",
						"header": [],
						"body": {
							"mode": "raw",
							"raw": "{\r\n    \"email\": \"admin@mail.com\",\r\n    \"password\": \"Password123\"\r\n}",
							"options": {
								"raw": {
									"language": "json"
								}
							}
						},
						"url": {
							"raw": "{{host}}/users/login",
							"host": [
								"{{host}}"
							],
							"path": [
								"users",
								"login"
							]
						}
					},
					"response": []
				},
				{
					"name": "Update Role User",
					"request": {
						"auth": {
							"type": "bearer",
							"bearer": [
								{
									"key": "token",
									"value": "{{token_blog}}",
									"type": "string"
								}
							]
						},
						"method": "PUT",
						"header": [],
						"body": {
							"mode": "raw",
							"raw": "{\r\n    \"role\": \"editor\"\r\n}",
							"options": {
								"raw": {
									"language": "json"
								}
							}
						},
						"url": {
							"raw": "{{host}}/users/:id/role",
							"host": [
								"{{host}}"
							],
							"path": [
								"users",
								":id",
								"role"
							],
							"variable": [
								{
									"key": "id",
									"value": "9"
								}
							]
						}
					},
					"response": []
				}
			]
		}
	]
}